[
    {
      "country": "Austria",
      "city": "Spielberg",
      "grand_prix": "Austrian Grand Prix",
      "circuit": "Red Bull Ring",
      "coordinates": {
        "lat": 47.2197,
        "lon": 14.7647
      }
    },
    {
      "country": "United Kingdom",
      "city": "Silverstone",
      "grand_prix": "British Grand Prix",
      "circuit": "Silverstone Circuit",
      "coordinates": {
        "lat": 52.0733,
        "lon": -1.0142
      }
    },
    {
      "country": "Hungary",
      "city": "Budapest",
      "grand_prix": "Hungarian Grand Prix",
      "circuit": "Hungaroring",
      "coordinates": {
        "lat": 47.5789,
        "lon": 19.2486
      }
    },
    {
      "country": "Italy",
      "city": "Monza",
      "grand_prix": "Italian Grand Prix",
      "circuit": "Autodromo Nazionale Monza",
      "coordinates": {
        "lat": 45.6217,
        "lon": 9.2811
      }
    },
    {
      "country": "Belgium",
      "city": "Stavelot",
      "grand_prix": "Belgian Grand Prix",
      "circuit": "Circuit de Spa-Francorchamps",
      "coordinates": {
        "lat": 50.4372,
        "lon": 5.9714
      }
    },
    {
      "country": "Netherlands",
      "city": "Zandvoort",
      "grand_prix": "Dutch Grand Prix",
      "circuit": "Circuit Zandvoort",
      "coordinates": {
        "lat": 52.3888,
        "lon": 4.5409
      }
    },
    {
      "country": "Russia",
      "city": "Sochi",
      "grand_prix": "Russian Grand Prix",
      "circuit": "Sochi Autodrom",
      "coordinates": {
        "lat": 43.4057,
        "lon": 39.9578
      }
    },
    {
      "country": "Turkey",
      "city": "Istanbul",
      "grand_prix": "Turkish Grand Prix",
      "circuit": "Istanbul Park",
      "coordinates": {
        "lat": 40.9518,
        "lon": 29.4050
      }
    },
    {
      "country": "Bahrain",
      "city": "Sakhir",
      "grand_prix": "Bahrain Grand Prix",
      "circuit": "Bahrain International Circuit",
      "coordinates": {
        "lat": 26.0325,
        "lon": 50.5106
      }
    },
    {
      "country": "United Arab Emirates",
      "city": "Abu Dhabi",
      "grand_prix": "Abu Dhabi Grand Prix",
      "circuit": "Yas Marina Circuit",
      "coordinates": {
        "lat": 24.4672,
        "lon": 54.6031
      }
    },
    {
      "country": "Italy",
      "city": "Imola",
      "grand_prix": "Emilia Romagna Grand Prix",
      "circuit": "Autodromo Internazionale Enzo e Dino Ferrari",
      "coordinates": {
        "lat": 44.3438,
        "lon": 11.7167
      }
    },
    {
      "country": "Portugal",
      "city": "Portimão",
      "grand_prix": "Portuguese Grand Prix",
      "circuit": "Algarve International Circuit",
      "coordinates": {
        "lat": 37.2286,
        "lon": -8.6294
      }
    },
    {
      "country": "France",
      "city": "Le Castellet",
      "grand_prix": "French Grand Prix",
      "circuit": "Circuit Paul Ricard",
      "coordinates": {
        "lat": 43.2509,
        "lon": 5.7914
      }
    },
    {
      "country": "Spain",
      "city": "Montmelo",
      "grand_prix": "Spanish Grand Prix",
      "circuit": "Circuit de Barcelona-Catalunya",
      "coordinates": {
        "lat": 41.5699,
        "lon": 2.2583
      }
    },
    {
      "country": "Monaco",
      "city": "Monte Carlo",
      "grand_prix": "Monaco Grand Prix",
      "circuit": "Circuit de Monaco",
      "coordinates": {
        "lat": 43.7347,
        "lon": 7.4206
      }
    },
    {
      "country": "Azerbaijan",
      "city": "Baku",
      "grand_prix": "Azerbaijan Grand Prix",
      "circuit": "Baku City Circuit",
      "coordinates": {
        "lat": 40.3725,
        "lon": 49.8533
      }
    },
    {
      "country": "Singapore",
      "city": "Singapore",
      "grand_prix": "Singapore Grand Prix",
      "circuit": "Marina Bay Street Circuit",
      "coordinates": {
        "lat": 1.2914,
        "lon": 103.863
      }
    },
    {
      "country": "Japan",
      "city": "Suzuka",
      "grand_prix": "Japanese Grand Prix",
      "circuit": "Suzuka International Racing Course",
      "coordinates": {
        "lat": 34.8431,
        "lon": 136.541
      }
    },
    {
      "country": "Australia",
      "city": "Melbourne",
      "grand_prix": "Australian Grand Prix",
      "circuit": "Albert Park Circuit",
      "coordinates": {
        "lat": -37.8497,
        "lon": 144.968
      }
    },
    {
      "country": "Saudi Arabia",
      "city": "Jeddah",
      "grand_prix": "Saudi Arabian Grand Prix",
      "circuit": "Jeddah Street Circuit",
      "coordinates": {
        "lat": 21.6220,
        "lon": 39.1104
      }
    },
    {
      "country": "United States",
      "city": "Austin",
      "grand_prix": "United States Grand Prix",
      "circuit": "Circuit of the Americas",
      "coordinates": {
        "lat": 30.1328,
        "lon": -97.6411
      }
    },
    {
      "country": "Mexico",
      "city": "Mexico City",
      "grand_prix": "Mexican Grand Prix",
      "circuit": "Autodromo Hermanos Rodriguez",
      "coordinates": {
        "lat": 19.4042,
        "lon": -99.0907
      }
    },
    {
      "country": "Brazil",
      "city": "Sao Paulo",
      "grand_prix": "Brazilian Grand Prix",
      "circuit": "Autodromo Jose Carlos Pace",
      "coordinates": {
        "lat": -23.7036,
        "lon": -46.6997
      }
    },
    {
      "country": "Canada",
      "city": "Montreal",
      "grand_prix": "Canadian Grand Prix",
      "circuit": "Circuit Gilles Villeneuve",
      "coordinates": {
        "lat": 45.5000,
        "lon": -73.5228
      }
    },
    {
      "country": "Qatar",
      "city": "Lusail",
      "grand_prix": "Qatar Grand Prix",
      "circuit": "Lusail International Circuit",
      "coordinates": {
        "lat": 25.4881,
        "lon": 51.4543
      }
    }
  ]